﻿[
  {
    "Id": 0,
    "Nom": "Alpes-de-Haute-Provence",
    "CodePostal": 4
  },
  {
    "Id": 1,
    "Nom": "Hautes-Alpes",
    "CodePostal": 5
  },
  {
    "Id": 2,
    "Nom": "Alpes-Maritimes",
    "CodePostal": 6
  },
  {
    "Id": 3,
    "Nom": "Bouches-du-Rhône",
    "CodePostal": 13
  },
  {
    "Id": 4,
    "Nom": "Var",
    "CodePostal": 83
  },
  {
    "Id": 5,
    "Nom": "Vaucluse",
    "CodePostal": 84
  }
]